C:\Users\HP\Documents\NetBeansProjects\firstappcore\src\main\java\com\travauxpratiques\firstappcore\Somme.java
C:\Users\HP\Documents\NetBeansProjects\firstappcore\src\main\java\com\travauxpratiques\firstappcore\Livre.java
C:\Users\HP\Documents\NetBeansProjects\firstappcore\src\main\java\com\travauxpratiques\firstappcore\SommeEtProduit.java
C:\Users\HP\Documents\NetBeansProjects\firstappcore\src\main\java\com\travauxpratiques\firstappcore\Personne.java
C:\Users\HP\Documents\NetBeansProjects\firstappcore\src\main\java\com\travauxpratiques\firstappcore\Produit.java
